{
    "ID": "doc_4.pdf",
    "content": [
        {
            "size": -0.872,
            "page": 1,
            "position": [
                0.11765,
                0.1247,
                0.14118,
                0.08432
            ],
            "word": "OKI"
        },
        {
            "size": 0.897,
            "page": 1,
            "position": [
                0.17143,
                0.08314,
                0.14622,
                0.1247
            ],
            "word": "OXI"
        },
        {
            "size": 0.487,
            "page": 1,
            "position": [
                0.11933,
                0.09976,
                0.16975,
                0.12233
            ],
            "word": "Ok",
            "cluster": 0
        },
        {
            "size": 0.205,
            "page": 1,
            "position": [
                0.09412,
                0.19121,
                0.20168,
                0.20071
            ],
            "word": "CREDITNOTA",
            "cluster": 2
        },
        {
            "size": 0.205,
            "page": 1,
            "position": [
                0.09412,
                0.24347,
                0.12269,
                0.25297
            ],
            "word": "BIBI",
            "cluster": 2
        },
        {
            "size": 0.205,
            "page": 1,
            "position": [
                0.12605,
                0.24347,
                0.14958,
                0.25297
            ],
            "word": "NV",
            "cluster": 2
        },
        {
            "size": 0.231,
            "page": 1,
            "position": [
                0.09412,
                0.26128,
                0.19832,
                0.27197
            ],
            "word": "Hovenstraat",
            "cluster": 2
        },
        {
            "size": 0.179,
            "page": 1,
            "position": [
                0.20168,
                0.26247,
                0.21681,
                0.27078
            ],
            "word": "12",
            "cluster": 2
        },
        {
            "size": 0.179,
            "page": 1,
            "position": [
                0.09412,
                0.28029,
                0.12941,
                0.2886
            ],
            "word": "1000",
            "cluster": 2
        },
        {
            "size": 0.179,
            "page": 1,
            "position": [
                0.13445,
                0.28029,
                0.19496,
                0.2886
            ],
            "word": "Brussel",
            "cluster": 2
        },
        {
            "size": 0.231,
            "page": 1,
            "position": [
                0.09412,
                0.2981,
                0.14286,
                0.30879
            ],
            "word": "Belgi\u00eb",
            "cluster": 2
        },
        {
            "size": 0.179,
            "page": 1,
            "position": [
                0.09412,
                0.31591,
                0.12941,
                0.32423
            ],
            "word": "IBAN",
            "cluster": 2
        },
        {
            "size": 0.179,
            "page": 1,
            "position": [
                0.13613,
                0.31591,
                0.16303,
                0.32423
            ],
            "word": "BE11",
            "cluster": 2
        },
        {
            "size": 0.179,
            "page": 1,
            "position": [
                0.16807,
                0.31591,
                0.2084,
                0.32423
            ],
            "word": "0689",
            "cluster": 2
        },
        {
            "size": 0.179,
            "page": 1,
            "position": [
                0.21345,
                0.31591,
                0.2521,
                0.32423
            ],
            "word": "3242",
            "cluster": 2
        },
        {
            "size": 0.179,
            "page": 1,
            "position": [
                0.25714,
                0.31591,
                0.27563,
                0.32423
            ],
            "word": "1111",
            "cluster": 2
        },
        {
            "size": 0.205,
            "page": 1,
            "position": [
                0.09412,
                0.33373,
                0.12773,
                0.34323
            ],
            "word": "BTW",
            "cluster": 2
        },
        {
            "size": 0.205,
            "page": 1,
            "position": [
                0.13445,
                0.33373,
                0.15126,
                0.34323
            ],
            "word": "BE",
            "cluster": 2
        },
        {
            "size": 0.205,
            "page": 1,
            "position": [
                0.15798,
                0.33373,
                0.22857,
                0.34323
            ],
            "word": "0718.711.111",
            "cluster": 2
        },
        {
            "size": 0.231,
            "page": 1,
            "position": [
                0.09412,
                0.48337,
                0.18655,
                0.49406
            ],
            "word": "Beschrijving",
            "cluster": 6
        },
        {
            "size": 0.231,
            "page": 1,
            "position": [
                0.09412,
                0.51425,
                0.18655,
                0.52494
            ],
            "word": "Basispakket",
            "cluster": 6
        },
        {
            "size": 0.205,
            "page": 1,
            "position": [
                0.1916,
                0.51544,
                0.19496,
                0.52494
            ],
            "word": "(",
            "cluster": 6
        },
        {
            "size": 0.256,
            "page": 1,
            "position": [
                0.19496,
                0.51425,
                0.25546,
                0.52613
            ],
            "word": "1/11/2022",
            "cluster": 6
        },
        {
            "size": 0.205,
            "page": 1,
            "position": [
                0.2605,
                0.51544,
                0.26387,
                0.52494
            ],
            "word": "-",
            "cluster": 6
        },
        {
            "size": 0.231,
            "page": 1,
            "position": [
                0.26723,
                0.51544,
                0.33782,
                0.52613
            ],
            "word": "30/11/2022",
            "cluster": 6
        },
        {
            "size": 0.231,
            "page": 1,
            "position": [
                0.33782,
                0.51544,
                0.34118,
                0.52613
            ],
            "word": ")",
            "cluster": 6
        },
        {
            "size": 0.205,
            "page": 1,
            "position": [
                0.09412,
                0.53088,
                0.13277,
                0.54038
            ],
            "word": "Extra",
            "cluster": 6
        },
        {
            "size": 0.205,
            "page": 1,
            "position": [
                0.13782,
                0.53088,
                0.2437,
                0.54038
            ],
            "word": "administraties",
            "cluster": 6
        },
        {
            "size": 0.205,
            "page": 1,
            "position": [
                0.25042,
                0.53088,
                0.25546,
                0.54038
            ],
            "word": "(",
            "cluster": 6
        },
        {
            "size": 0.205,
            "page": 1,
            "position": [
                0.25546,
                0.53088,
                0.26387,
                0.54038
            ],
            "word": "2",
            "cluster": 6
        },
        {
            "size": 0.205,
            "page": 1,
            "position": [
                0.26387,
                0.53088,
                0.26891,
                0.54038
            ],
            "word": ")",
            "cluster": 6
        },
        {
            "size": 0.231,
            "page": 1,
            "position": [
                0.09412,
                0.54751,
                0.18992,
                0.55819
            ],
            "word": "Documenten",
            "cluster": 6
        },
        {
            "size": 0.231,
            "page": 1,
            "position": [
                0.19496,
                0.54751,
                0.2,
                0.55819
            ],
            "word": "(",
            "cluster": 6
        },
        {
            "size": 0.231,
            "page": 1,
            "position": [
                0.2,
                0.54751,
                0.24706,
                0.55819
            ],
            "word": "Totaal",
            "cluster": 6
        },
        {
            "size": 0.231,
            "page": 1,
            "position": [
                0.24874,
                0.54751,
                0.2521,
                0.55819
            ],
            "word": ":",
            "cluster": 6
        },
        {
            "size": 0.231,
            "page": 1,
            "position": [
                0.25714,
                0.54751,
                0.28571,
                0.55819
            ],
            "word": "286",
            "cluster": 6
        },
        {
            "size": 0.231,
            "page": 1,
            "position": [
                0.28739,
                0.54751,
                0.29244,
                0.55819
            ],
            "word": ")",
            "cluster": 6
        },
        {
            "size": 0.205,
            "page": 1,
            "position": [
                0.09412,
                0.56413,
                0.13782,
                0.57363
            ],
            "word": "CODA",
            "cluster": 6
        },
        {
            "size": 0.205,
            "page": 1,
            "position": [
                0.14286,
                0.56413,
                0.21008,
                0.57363
            ],
            "word": "accounts",
            "cluster": 6
        },
        {
            "size": 0.205,
            "page": 1,
            "position": [
                0.21513,
                0.56413,
                0.22017,
                0.57363
            ],
            "word": "(",
            "cluster": 6
        },
        {
            "size": 0.205,
            "page": 1,
            "position": [
                0.22185,
                0.56413,
                0.22857,
                0.57363
            ],
            "word": "0",
            "cluster": 6
        },
        {
            "size": 0.205,
            "page": 1,
            "position": [
                0.23025,
                0.56413,
                0.23529,
                0.57363
            ],
            "word": ")",
            "cluster": 6
        },
        {
            "size": 0.179,
            "page": 1,
            "position": [
                0.09412,
                0.58076,
                0.17311,
                0.58907
            ],
            "word": "Creditnota",
            "cluster": 6
        },
        {
            "size": 0.179,
            "page": 1,
            "position": [
                0.17815,
                0.58076,
                0.21176,
                0.58907
            ],
            "word": "voor",
            "cluster": 6
        },
        {
            "size": 0.179,
            "page": 1,
            "position": [
                0.21513,
                0.58076,
                0.26891,
                0.58907
            ],
            "word": "factuur",
            "cluster": 6
        },
        {
            "size": 0.179,
            "page": 1,
            "position": [
                0.27395,
                0.58076,
                0.31092,
                0.58907
            ],
            "word": "2022",
            "cluster": 6
        },
        {
            "size": 0.179,
            "page": 1,
            "position": [
                0.31429,
                0.58076,
                0.31933,
                0.58907
            ],
            "word": "-",
            "cluster": 6
        },
        {
            "size": 0.179,
            "page": 1,
            "position": [
                0.31933,
                0.58076,
                0.32941,
                0.58907
            ],
            "word": "A",
            "cluster": 6
        },
        {
            "size": 0.179,
            "page": 1,
            "position": [
                0.33109,
                0.58076,
                0.33445,
                0.58907
            ],
            "word": "-",
            "cluster": 6
        },
        {
            "size": 0.179,
            "page": 1,
            "position": [
                0.33782,
                0.58076,
                0.38655,
                0.58907
            ],
            "word": "00941",
            "cluster": 6
        },
        {
            "size": 0.179,
            "page": 1,
            "position": [
                0.09412,
                0.61164,
                0.16639,
                0.61995
            ],
            "word": "Subtotaal",
            "cluster": 6
        },
        {
            "size": 0.205,
            "page": 1,
            "position": [
                0.09412,
                0.62827,
                0.12773,
                0.63777
            ],
            "word": "BTW",
            "cluster": 6
        },
        {
            "size": 0.205,
            "page": 1,
            "position": [
                0.13277,
                0.62827,
                0.17479,
                0.63777
            ],
            "word": "tarief",
            "cluster": 6
        },
        {
            "size": 0.231,
            "page": 1,
            "position": [
                0.09412,
                0.64489,
                0.12773,
                0.65558
            ],
            "word": "BTW",
            "cluster": 6
        },
        {
            "size": 0.256,
            "page": 1,
            "position": [
                0.13445,
                0.64489,
                0.18655,
                0.65677
            ],
            "word": "bedrag",
            "cluster": 6
        },
        {
            "size": 0.179,
            "page": 1,
            "position": [
                0.09412,
                0.66271,
                0.14286,
                0.67102
            ],
            "word": "Totaal",
            "cluster": 6
        },
        {
            "size": 0.205,
            "page": 1,
            "position": [
                0.47563,
                0.19121,
                0.61345,
                0.20071
            ],
            "word": "Factuurnummer",
            "cluster": 3
        },
        {
            "size": 0.179,
            "page": 1,
            "position": [
                0.47563,
                0.20903,
                0.59328,
                0.21734
            ],
            "word": "Factuurdatum",
            "cluster": 3
        },
        {
            "size": 0.179,
            "page": 1,
            "position": [
                0.47563,
                0.22684,
                0.58319,
                0.23515
            ],
            "word": "Vervaldatum",
            "cluster": 3
        },
        {
            "size": 0.256,
            "page": 1,
            "position": [
                0.47563,
                0.24347,
                0.57311,
                0.25534
            ],
            "word": "Mededeling",
            "cluster": 3
        },
        {
            "size": 0.205,
            "page": 1,
            "position": [
                0.47227,
                0.2791,
                0.5042,
                0.2886
            ],
            "word": "Dirk",
            "cluster": 3
        },
        {
            "size": 0.205,
            "page": 1,
            "position": [
                0.50756,
                0.2791,
                0.51933,
                0.2886
            ],
            "word": "&",
            "cluster": 3
        },
        {
            "size": 0.205,
            "page": 1,
            "position": [
                0.52269,
                0.2791,
                0.59496,
                0.2886
            ],
            "word": "Partners",
            "cluster": 3
        },
        {
            "size": 0.205,
            "page": 1,
            "position": [
                0.59832,
                0.2791,
                0.62017,
                0.2886
            ],
            "word": "BV",
            "cluster": 3
        },
        {
            "size": 0.179,
            "page": 1,
            "position": [
                0.47227,
                0.2981,
                0.59832,
                0.30641
            ],
            "word": "Vlaamsestraat",
            "cluster": 3
        },
        {
            "size": 0.179,
            "page": 1,
            "position": [
                0.60336,
                0.2981,
                0.61849,
                0.30641
            ],
            "word": "21",
            "cluster": 3
        },
        {
            "size": 0.179,
            "page": 1,
            "position": [
                0.47227,
                0.31591,
                0.50756,
                0.32423
            ],
            "word": "3010",
            "cluster": 3
        },
        {
            "size": 0.179,
            "page": 1,
            "position": [
                0.51261,
                0.31591,
                0.57143,
                0.32423
            ],
            "word": "Leuven",
            "cluster": 3
        },
        {
            "size": 0.231,
            "page": 1,
            "position": [
                0.47227,
                0.33373,
                0.5395,
                0.34442
            ],
            "word": "Belgium",
            "cluster": 3
        },
        {
            "size": 0.179,
            "page": 1,
            "position": [
                0.47227,
                0.35154,
                0.57815,
                0.35986
            ],
            "word": "BE0764.621.111",
            "cluster": 3
        },
        {
            "size": 0.795,
            "page": 1,
            "position": [
                0.10252,
                0.75297,
                0.24034,
                0.78979
            ],
            "word": "This",
            "cluster": 6
        },
        {
            "size": 0.821,
            "page": 1,
            "position": [
                0.25546,
                0.75178,
                0.50924,
                0.78979
            ],
            "word": "invoice",
            "cluster": 6
        },
        {
            "size": 1.0,
            "page": 1,
            "position": [
                0.10588,
                0.80048,
                0.33613,
                0.84679
            ],
            "word": "makes",
            "cluster": 6
        },
        {
            "size": 0.974,
            "page": 1,
            "position": [
                0.35126,
                0.80523,
                0.51092,
                0.85036
            ],
            "word": "your",
            "cluster": 6
        },
        {
            "size": 0.692,
            "page": 1,
            "position": [
                0.1042,
                0.85273,
                0.47395,
                0.8848
            ],
            "word": "customers",
            "cluster": 6
        },
        {
            "size": 0.769,
            "page": 1,
            "position": [
                0.09916,
                0.89549,
                0.22857,
                0.93112
            ],
            "word": "feel",
            "cluster": 6
        },
        {
            "size": 0.769,
            "page": 1,
            "position": [
                0.24538,
                0.89549,
                0.46555,
                0.93112
            ],
            "word": "OkiOki",
            "cluster": 6
        },
        {
            "size": 0.205,
            "page": 1,
            "position": [
                0.69748,
                0.19121,
                0.73613,
                0.20071
            ],
            "word": "2022",
            "cluster": 1
        },
        {
            "size": 0.205,
            "page": 1,
            "position": [
                0.73613,
                0.19121,
                0.74286,
                0.20071
            ],
            "word": "-",
            "cluster": 1
        },
        {
            "size": 0.205,
            "page": 1,
            "position": [
                0.74454,
                0.19121,
                0.7563,
                0.20071
            ],
            "word": "C",
            "cluster": 1
        },
        {
            "size": 0.205,
            "page": 1,
            "position": [
                0.7563,
                0.19121,
                0.76303,
                0.20071
            ],
            "word": "-",
            "cluster": 1
        },
        {
            "size": 0.205,
            "page": 1,
            "position": [
                0.76639,
                0.19121,
                0.80672,
                0.20071
            ],
            "word": "01016",
            "cluster": 1
        },
        {
            "size": 0.256,
            "page": 1,
            "position": [
                0.6958,
                0.20665,
                0.77815,
                0.21853
            ],
            "word": "30/11/2022",
            "cluster": 1
        },
        {
            "size": 0.256,
            "page": 1,
            "position": [
                0.6958,
                0.22447,
                0.78319,
                0.23634
            ],
            "word": "30/12/2022",
            "cluster": 1
        },
        {
            "size": 0.205,
            "page": 1,
            "position": [
                0.55462,
                0.51425,
                0.58824,
                0.52375
            ],
            "word": "1,00",
            "cluster": 5
        },
        {
            "size": 0.154,
            "page": 1,
            "position": [
                0.57983,
                0.53207,
                0.5916,
                0.53919
            ],
            "word": "2",
            "cluster": 5
        },
        {
            "size": 0.282,
            "page": 1,
            "position": [
                0.69748,
                0.24228,
                0.72437,
                0.25534
            ],
            "word": "+++",
            "cluster": 1
        },
        {
            "size": 0.282,
            "page": 1,
            "position": [
                0.72605,
                0.24228,
                0.84706,
                0.25534
            ],
            "word": "332/0221/01662",
            "cluster": 1
        },
        {
            "size": 0.282,
            "page": 1,
            "position": [
                0.84874,
                0.24228,
                0.87731,
                0.25534
            ],
            "word": "+++",
            "cluster": 1
        },
        {
            "size": 0.231,
            "page": 1,
            "position": [
                0.51429,
                0.48337,
                0.58824,
                0.49406
            ],
            "word": "Eenheden",
            "cluster": 5
        },
        {
            "size": 0.231,
            "page": 1,
            "position": [
                0.60336,
                0.48337,
                0.63697,
                0.49406
            ],
            "word": "Kost",
            "cluster": 5
        },
        {
            "size": 0.231,
            "page": 1,
            "position": [
                0.64202,
                0.48337,
                0.66555,
                0.49406
            ],
            "word": "per",
            "cluster": 5
        },
        {
            "size": 0.205,
            "page": 1,
            "position": [
                0.67059,
                0.48456,
                0.72941,
                0.49406
            ],
            "word": "eenheid",
            "cluster": 5
        },
        {
            "size": 0.205,
            "page": 1,
            "position": [
                0.68739,
                0.51425,
                0.72941,
                0.52375
            ],
            "word": "79,90",
            "cluster": 5
        },
        {
            "size": 0.179,
            "page": 1,
            "position": [
                0.6958,
                0.53207,
                0.73109,
                0.54038
            ],
            "word": "2,75",
            "cluster": 5
        },
        {
            "size": 0.179,
            "page": 1,
            "position": [
                0.70588,
                0.56532,
                0.73109,
                0.57363
            ],
            "word": "1,5",
            "cluster": 5
        },
        {
            "size": 0.154,
            "page": 1,
            "position": [
                0.72269,
                0.61283,
                0.73109,
                0.61995
            ],
            "word": "\u20ac",
            "cluster": 5
        },
        {
            "size": 0.154,
            "page": 1,
            "position": [
                0.72269,
                0.64608,
                0.73109,
                0.65321
            ],
            "word": "\u20ac",
            "cluster": 5
        },
        {
            "size": 0.205,
            "page": 1,
            "position": [
                0.71933,
                0.66152,
                0.73109,
                0.67102
            ],
            "word": "\u20ac",
            "cluster": 5
        },
        {
            "size": 0.077,
            "page": 1,
            "position": [
                0.87227,
                0.43943,
                0.87899,
                0.44299
            ],
            "word": "\u25cf",
            "cluster": 4
        },
        {
            "size": 0.179,
            "page": 1,
            "position": [
                0.8605,
                0.48456,
                0.90756,
                0.49287
            ],
            "word": "Totaal",
            "cluster": 7
        },
        {
            "size": 0.205,
            "page": 1,
            "position": [
                0.86387,
                0.51425,
                0.90756,
                0.52375
            ],
            "word": "79,90",
            "cluster": 7
        },
        {
            "size": 0.179,
            "page": 1,
            "position": [
                0.88235,
                0.53207,
                0.90756,
                0.54038
            ],
            "word": "5,5",
            "cluster": 7
        },
        {
            "size": 0.231,
            "page": 1,
            "position": [
                0.86387,
                0.54751,
                0.90756,
                0.55819
            ],
            "word": "44,72",
            "cluster": 7
        },
        {
            "size": 0.179,
            "page": 1,
            "position": [
                0.87395,
                0.56532,
                0.90588,
                0.57363
            ],
            "word": "0,00",
            "cluster": 7
        },
        {
            "size": 0.205,
            "page": 1,
            "position": [
                0.84706,
                0.61164,
                0.90756,
                0.62114
            ],
            "word": "-130,12",
            "cluster": 7
        },
        {
            "size": 0.179,
            "page": 1,
            "position": [
                0.87227,
                0.62827,
                0.89076,
                0.63658
            ],
            "word": "21",
            "cluster": 7
        },
        {
            "size": 0.179,
            "page": 1,
            "position": [
                0.89244,
                0.62827,
                0.90588,
                0.63658
            ],
            "word": "%",
            "cluster": 7
        },
        {
            "size": 0.205,
            "page": 1,
            "position": [
                0.85714,
                0.64608,
                0.90756,
                0.65558
            ],
            "word": "-27,33",
            "cluster": 7
        },
        {
            "size": 0.205,
            "page": 1,
            "position": [
                0.84706,
                0.66271,
                0.90756,
                0.67221
            ],
            "word": "-157,45",
            "cluster": 7
        }
    ],
    "info": {
        "OCR": true,
        "pages": [
            {
                "rotation": 0,
                "locale": "nl",
                "text": "OKI\nOXI\nOk\nCREDITNOTA\nBIBI NV\nHovenstraat 12\n1000 Brussel\nBelgi\u00eb\nIBAN BE11 0689 3242 1111\nBTW BE 0718.711.111\nBeschrijving\nBasispakket (1/11/2022 - 30/11/2022)\nExtra administraties (2)\nDocumenten (Totaal: 286)\nCODA accounts (0)\nCreditnota voor factuur 2022-A-00941\nSubtotaal\nBTW tarief\nBTW bedrag\nTotaal\nFactuurnummer\nFactuurdatum\nVervaldatum\nMededeling\nDirk & Partners BV\nVlaamsestraat 21\n3010 Leuven\nBelgium\nBE0764.621.111\nThis invoice\nmakes your\ncustomers\nfeel OkiOki\n2022-C-01016\n30/11/2022\n30/12/2022\n1,00\n2\n+++332/0221/01662+++\nEenheden Kost per eenheid\n79,90\n2,75\n1,5\n\u20ac\n\u20ac\n\u20ac\n\u25cf\nTotaal\n79,90\n5,5\n44,72\n0,00\n-130,12\n21%\n-27,33\n-157,45"
            }
        ],
        "requests": 1,
        "barcodes": [],
        "ocr_provider": "GOOGLE",
        "page_count": 1
    },
    "locale": "nl"
}